{
  "$schema": "http://json-schema.org/draft-07/schema#",
  "description": "Security policy experimental feature configurations",
  "type": "object",
  "patternProperties": {
    "^[a-z][a-z0-9_]*$": {
      "type": "object",
      "required": [
        "enabled"
      ],
      "properties": {
        "enabled": {
          "type": "boolean",
          "description": "Whether the experimental feature is enabled"
        },
        "configuration": {
          "type": "object",
          "description": "Optional configuration options for the experimental feature",
          "additionalProperties": true
        }
      }
    }
  },
  "additionalProperties": false
}
