{
  "description": "Default/max resources of the workspace pod/container for Workspaces Agent Configs",
  "type": "object",
  "properties": {
    "limits": {
      "type": "object",
      "properties": {
        "cpu": {
          "type": "string"
        },
        "memory": {
          "type": "string"
        }
      }
    },
    "requests": {
      "type": "object",
      "properties": {
        "cpu": {
          "type": "string"
        },
        "memory": {
          "type": "string"
        }
      }
    }
  }
}
